﻿ID,Tipo,SKU,Nome,Publicado,"Em destaque?","Visibilidade no catálogo","Descrição curta",Descrição,"Data de preço promocional começa em","Data de preço promocional termina em","Status do imposto","Classe de imposto","Em estoque?",Estoque,"Quantidade baixa de estoque","São permitidas encomendas?","Vendido individualmente?","Peso (kg)","Comprimento (cm)","Largura (cm)","Altura (cm)","Permitir avaliações de clientes?","Nota da compra","Preço promocional",Preço,Categorias,Tags,"Classe de entrega",Imagens,"Limite de downloads","Dias para expirar o download",Ascendente,"Grupo de produtos","Aumentar vendas","Venda cruzada","URL externa","Texto do botão",Posição,"Nome do atributo 1","Valores do atributo 1","Visibilidade do atributo 1","Atributo global 1","Atributo padrão 1"
41,simple,,"Bolinha de Catnip Simples",1,0,visible,,"É uma bolinha de catnip simples!!!!!",,,taxable,,1,10,,1,0,0.100,,,,1,,,40,"Gato > Brinquedos para Gato, Gato",,,http://tarefa-de-woocommerce.local/wp-content/uploads/2022/08/woocommercer.jpg,,,,,,,,,0,,,,,
43,variable,,"Coleira Universal",1,0,visible,,"Essa é uma coleira universal !!!",,,taxable,,1,30,,0,0,0.050,,,,1,,,,"Cachorro > Roupas de Cachorro, Gato > Roupas de Gato",,,http://tarefa-de-woocommerce.local/wp-content/uploads/2022/08/woocommercer2.webp,,,,,,,,,0,Tamanho,"Grande, Medio, Pequeno",1,1,Grande
44,variation,,"Coleira Universal - Pequeno",1,0,visible,,,,,taxable,parent,1,45,,0,0,,,,,0,,,50,,,,,,,id:43,,,,,,0,Tamanho,Pequeno,,1,
45,variation,,"Coleira Universal - Medio",1,0,visible,,,,,taxable,parent,1,35,,0,0,,,,,0,,,60,,,,,,,id:43,,,,,,0,Tamanho,Medio,,1,
46,variation,,"Coleira Universal - Grande",1,0,visible,,,,,taxable,parent,1,25,,0,0,,,,,0,,,70,,,,,,,id:43,,,,,,0,Tamanho,Grande,,1,
47,variable,,"Sapatinho de Cachorro",1,0,visible,,"Sapatinho de Cachorro Colorido",,,taxable,,1,60,,0,0,,,,,1,,,,"Cachorro > Roupas de Cachorro",,,http://tarefa-de-woocommerce.local/wp-content/uploads/2022/08/woocommercer3.jpg,,,,,,,,,0,Cor,"Branco, Preto, Vermelho",1,1,
48,variation,,"Sapatinho de Cachorro - Branco",1,0,visible,,,,,taxable,parent,1,20,,0,0,,,,,0,,,15,,,,,,,id:47,,,,,,1,Cor,Branco,,1,
49,variation,,"Sapatinho de Cachorro - Preto",1,0,visible,,,,,taxable,parent,1,40,,0,0,,,,,0,,,15,,,,,,,id:47,,,,,,2,Cor,Preto,,1,
50,variation,,"Sapatinho de Cachorro - Vermelho",1,0,visible,,,,,taxable,parent,1,40,,0,0,,,,,0,,,15,,,,,,,id:47,,,,,,3,Cor,Vermelho,,1,
51,simple,,"Galinha Gritante",1,0,visible,,"É uma galinha gritante de brinquedo",,,taxable,,1,100,,0,0,,,,,1,,,20,"Cachorro > Brinquedos para Cachorro",,,http://tarefa-de-woocommerce.local/wp-content/uploads/2022/08/woocommercer4.webp,,,,,,,,,0,,,,,
52,simple,,"Osso Natural",1,0,visible,,"É um osso natural para cachorro",,,taxable,,1,20,,0,0,,,,,1,,,60,"Cachorro > Brinquedos para Cachorro",,,http://tarefa-de-woocommerce.local/wp-content/uploads/2022/08/woocommercer5.jpg,,,,,,,,,0,,,,,
53,simple,,"Osso de Borracha",1,0,visible,,"É um osso de borracha para cachorro",,,taxable,,1,60,,0,0,,,,,1,,,10,"Cachorro > Brinquedos para Cachorro",,,http://tarefa-de-woocommerce.local/wp-content/uploads/2022/08/woocommercer6.webp,,,,,,,,,0,,,,,
54,variable,,"Caminha Universal",1,0,visible,,"É uma caminha universal.",,,taxable,,1,35,,0,0,,,,,1,,,,"Cachorro, Casas\, Camas e Bolsas, Gato",,,http://tarefa-de-woocommerce.local/wp-content/uploads/2022/08/woocommercer7.jpg,,,,,,,,,0,Cor,"Branco, Preto, Vermelho",1,1,Branco
55,variation,,"Caminha Universal - Vermelho",1,0,visible,,,,,taxable,parent,1,10,,0,0,,,,,0,,,70,,,,,,,id:54,,,,,,0,Cor,Vermelho,,1,
56,variation,,"Caminha Universal - Preto",1,0,visible,,,,,taxable,parent,1,10,,0,0,,,,,0,,,70,,,,,,,id:54,,,,,,0,Cor,Preto,,1,
57,variation,,"Caminha Universal - Branco",1,0,visible,,,,,taxable,parent,1,5,,0,0,,,,,0,,,70,,,,,,,id:54,,,,,,0,Cor,Branco,,1,
58,simple,,"Casa de Cachorro",1,0,visible,,"É uma Casa de Cachorro",,,taxable,,1,5,,0,0,,,,,1,,,300,"Cachorro, Casas\, Camas e Bolsas",,,http://tarefa-de-woocommerce.local/wp-content/uploads/2022/08/woocommercer8.jpg,,,,,,,,,0,,,,,
59,simple,,"Mesinha para Alimentação",1,0,visible,,"É uma Mesinha para Alimentação",,,taxable,,1,10,,0,0,,,,,1,,,70,"Cachorro, Gato",,,http://tarefa-de-woocommerce.local/wp-content/uploads/2022/08/woocommercer9.jpg,,,,,,,,,0,,,,,
60,simple,,"Rato de Brinquedo",1,0,visible,,"É um Rato de Brinquedo",,,taxable,,1,30,,0,0,,,,,1,,,10,"Gato > Brinquedos para Gato",,,http://tarefa-de-woocommerce.local/wp-content/uploads/2022/08/woocommercer10.jpg,,,,,,,,,0,,,,,
61,simple,,Esfregadeira,1,0,visible,,"É uma esfregadeira para gato",,,taxable,,1,25,,0,0,,,,,1,,,30,"Gato > Brinquedos para Gato",,,http://tarefa-de-woocommerce.local/wp-content/uploads/2022/08/woocommercer11.jpg,,,,,,,,,0,,,,,
62,simple,,"Torre com Bolinha",1,0,visible,,"É uma torre com bolinha para gato",,,taxable,,1,15,,0,0,,,,,1,,,45,"Gato > Brinquedos para Gato",,,http://tarefa-de-woocommerce.local/wp-content/uploads/2022/08/woocommercer12.jpg,,,,,,,,,0,,,,,
63,simple,,"Gira Gira",1,0,visible,,"É um brinquedo que tem bolinhas que giram dentro",,,taxable,,1,15,,0,0,,,,,1,,,65,"Gato > Brinquedos para Gato",,,http://tarefa-de-woocommerce.local/wp-content/uploads/2022/08/woocommercer13.jpg,,,,,,,,,0,,,,,
64,simple,,"Catnip no Abacate",1,0,visible,,"É uma bolinha de catnip no abacate",,,taxable,,1,20,,0,0,,,,,1,,,55,"Gato > Brinquedos para Gato",,,http://tarefa-de-woocommerce.local/wp-content/uploads/2022/08/woocommercer14.jpg,,,,,,,,,0,,,,,
65,simple,,"Casa de Gato",1,0,visible,,"É uma casa de gato",,,taxable,,1,10,,0,0,,,,,1,,,250,"Casas\, Camas e Bolsas, Gato",,,http://tarefa-de-woocommerce.local/wp-content/uploads/2022/08/woocommercer15.jpg,,,,,,,,,0,,,,,
66,simple,,"Peixinho de Borracha",1,0,visible,,"É um peixinho de borracha",,,taxable,,1,30,,0,0,,,,,1,,,15,"Gato > Brinquedos para Gato",,,http://tarefa-de-woocommerce.local/wp-content/uploads/2022/08/woocommercer16.jpg,,,,,,,,,0,,,,,
67,simple,,"Osso de Cordas",1,0,visible,,"É um osso de cordas",,,taxable,,1,15,,0,0,,,,,1,,,25,"Cachorro > Brinquedos para Cachorro",,,http://tarefa-de-woocommerce.local/wp-content/uploads/2022/08/woocommercer17.jpg,,,,,,,,,0,,,,,
68,simple,,"Patinho de Corda",1,0,visible,,"É um patinho feito de corda",,,taxable,,1,20,,0,0,,,,,1,,,40,"Cachorro > Brinquedos para Cachorro",,,http://tarefa-de-woocommerce.local/wp-content/uploads/2022/08/woocommercer18.jpg,,,,,,,,,0,,,,,
69,simple,,"Pneu Mordedor",1,0,visible,,"É um pneu mordedor",,,taxable,,1,20,,0,0,,,,,1,,,45,"Cachorro > Brinquedos para Cachorro",,,http://tarefa-de-woocommerce.local/wp-content/uploads/2022/08/woocommercer19.jpg,,,,,,,,,0,,,,,
71,simple,,"AUTO-DRAFT (cópia)",'-1,0,visible,,,,,taxable,,1,,,0,0,,,,,1,,,,"Sem categoria",,,,,,,,,,,,0,,,,,
73,simple,,"Carninha de Borracha",1,0,visible,,"É uma carninha de borracha",,,taxable,,1,40,,0,0,,,,,1,,,10,"Cachorro > Brinquedos para Cachorro",,,http://tarefa-de-woocommerce.local/wp-content/uploads/2022/08/woocommercer20.jpg,,,,,,,,,0,,,,,
74,simple,,"Bola de Borracha",1,0,visible,,"É uma bola de borracha",,,taxable,,1,30,,0,0,,,,,1,,,25,"Cachorro > Brinquedos para Cachorro",,,http://tarefa-de-woocommerce.local/wp-content/uploads/2022/08/woocommercer21.jpg,,,,,,,,,0,,,,,
75,simple,,"Bolsa de Colo Pet",1,0,visible,,"É uma bolsa de colo para pets",,,taxable,,1,15,,0,0,,,,,1,,,90,"Cachorro, Casas\, Camas e Bolsas, Gato",,,http://tarefa-de-woocommerce.local/wp-content/uploads/2022/08/woocommercer28.jpg,,,,,,,,,0,,,,,
76,simple,,"Bolsa de Mão Pet",1,0,visible,,"É uma bolsa de mão para pets",,,taxable,,1,30,,0,0,,,,,1,,,75,"Cachorro, Casas\, Camas e Bolsas, Gato",,,http://tarefa-de-woocommerce.local/wp-content/uploads/2022/08/woocommercer29.jpg,,,,,,,,,0,,,,,
77,simple,,"Mala Pet",1,0,visible,,"É uma mala para pets",,,taxable,,1,10,,0,0,,,,,1,,,120,"Cachorro, Casas\, Camas e Bolsas, Gato",,,http://tarefa-de-woocommerce.local/wp-content/uploads/2022/08/woocommercer30.jpg,,,,,,,,,0,,,,,
78,simple,,"Camisa da Seleção Cat",1,0,visible,,"É uma camisa da seleção para gatos",,,taxable,,1,20,,0,0,,,,,1,,,50,"Gato > Roupas de Gato",,,http://tarefa-de-woocommerce.local/wp-content/uploads/2022/08/woocommercer23.jpg,,,,,,,,,0,,,,,
79,simple,,"Roupa Dinossauro Cat",1,0,visible,,"É uma roupa de dinossauro para gatos",,,taxable,,1,20,,0,0,,,,,1,,,50,"Gato > Roupas de Gato",,,http://tarefa-de-woocommerce.local/wp-content/uploads/2022/08/woocommercer22.jpg,,,,,,,,,0,,,,,
80,simple,,"Roupinha Sasu Cat",1,0,visible,,"É uma roupa do sasuke para gatos",,,taxable,,1,1,,0,0,,,,,1,,,80,"Gato > Roupas de Gato",,,http://tarefa-de-woocommerce.local/wp-content/uploads/2022/08/woocommercer24.jpg,,,,,,,,,0,,,,,
81,simple,,"Roupa TubaCão",1,0,visible,,"É uma roupa de tubarão para cachorro",,,taxable,,1,2,,0,0,,,,,1,,,100,"Cachorro > Roupas de Cachorro",,,http://tarefa-de-woocommerce.local/wp-content/uploads/2022/08/woocommercer25.jpg,,,,,,,,,0,,,,,
82,simple,,"Roupa Sasu Cão",1,0,visible,,"É uma roupa do sasuke para cachorro",,,taxable,,1,1,,0,0,,,,,1,,,130,"Cachorro > Roupas de Cachorro",,,http://tarefa-de-woocommerce.local/wp-content/uploads/2022/08/woocommercer26.jpg,,,,,,,,,0,,,,,
83,simple,,"Roupa ChuCão",1,0,visible,,"É uma roupa do Chucky para cachorros",,,taxable,,1,1,,0,0,,,,,1,,,150,"Cachorro > Roupas de Cachorro",,,http://tarefa-de-woocommerce.local/wp-content/uploads/2022/08/woocommercer27.jpg,,,,,,,,,0,,,,,
